%YAML 1.1
%TAG !u! tag:unity3d.com,2011:
--- !u!114 &11400000
MonoBehaviour:
  m_ObjectHideFlags: 0
  m_CorrespondingSourceObject: {fileID: 0}
  m_PrefabInstance: {fileID: 0}
  m_PrefabAsset: {fileID: 0}
  m_GameObject: {fileID: 0}
  m_Enabled: 1
  m_EditorHideFlags: 0
  m_Script: {fileID: 11500000, guid: ebc0ba1b5ef6b4a6b9dd53d7eadfea16, type: 3}
  m_Name: AppLovinSettings
  m_EditorClassIdentifier: 
  qualityServiceEnabled: 0
  sdkKey: 
  adMobAndroidAppId: 
  adMobIosAppId: ca-app-pub-4082209348093361~2897786611
